{
    "version": "7.2.17.1032",
    "license": "Proprietary",
    "url": "https://downloads.dynatrace.com/clientservices/portableclient?version=7.2.17.1032&os=windows&arch=x64#/dl.zip",
    "homepage": "https://www.dynatrace.com/platform/application-performance-management/",
    "hash": "e5b7dda02c8a4e7748d3455e7bdff8ad13b95574ccccb2bad639b5b95f6c8bb8",
    "bin": "dtclient.exe",
    "shortcuts": [
        ["dtclient.exe", "Dynatrace Client"]
    ],
    "autoupdate": {
        "url": "https://downloads.dynatrace.com/clientservices/portableclient?version=$version&os=windows&arch=x64",
        "hash": "$url.sha256"
    }
}
