{
    "version": "3.2.3200",
    "license": "GPL-3.0-or-later",
    "url": "https://dl.ganttproject.biz/ganttproject-3.2.3200/ganttproject-3.2.3200.exe",
    "extract_dir": "ganttproject-3.2.3200",
    "homepage": "https://www.ganttproject.biz",
    "hash": "b7adbc528d40696b207831f606d2e645b9d8e8d8173d0a8383079aae4cc3f6a6",
    "bin": [
        [
            "ganttproject.bat",
            "GanttProject"
        ]
    ],
    "shortcuts": [
        [
            "ganttproject.bat",
            "GanttProject"
        ]
    ],
    "checkver": {
        "github": "https://github.com/bardsoftware/ganttproject",
        "regex": "/releases/tag/ganttproject-([\\d.]+)"
    },
    "autoupdate": {
        "url": "https://dl.ganttproject.biz/ganttproject-$version/ganttproject-$version.exe",
        "hash": "$url.sha256",
        "extract_dir": "ganttproject-$version"
    }
}
